{
    "_comment":"source des données https://api.themoviedb.org/3/tv/popular?language=fr&api_key=e0c090ad9289504f572875f449a5f944",
    "page": 1,
  "total_results": 20000,
  "total_pages": 1000,
  "results": [
    {
      "original_name": "Game of Thrones",
      "genre_ids": [
        18,
        10759,
        10765
      ],
      "name": "Game of Thrones",
      "popularity": 634.07,
      "origin_country": [
        "US"
      ],
      "vote_count": 5725,
      "first_air_date": "2011-04-17",
      "backdrop_path": "/qsD5OHqW7DSnaQ2afwz8Ptht1Xb.jpg",
      "original_language": "en",
      "id": 1399,
      "vote_average": 8.2,
      "overview": "Il y a très longtemps, à une époque oubliée, une force a détruit l'équilibre des saisons. Dans un pays où l'été peut durer plusieurs années et l'hiver toute une vie, des forces sinistres et surnaturelles se pressent aux portes du Royaume des Sept Couronnes. La confrérie de la Garde de Nuit, protégeant le Royaume de toute créature pouvant provenir d'au-delà du Mur protecteur, n'a plus les ressources nécessaires pour assurer la sécurité de tous. Après un été de dix années, un hiver rigoureux s'abat sur le Royaume avec la promesse d'un avenir des plus sombres. Pendant ce temps, complots et rivalités se jouent sur le continent pour s'emparer du Trône de fer, le symbole du pouvoir absolu.",
      "poster_path": "/UgXmPtoT4SDmGI1YcAob3u0SMU.jpg"
    },
    {
      "original_name": "ワンパンマン",
      "genre_ids": [
        16,
        35,
        10759
      ],
      "name": "One-Punch Man",
      "popularity": 424.046,
      "origin_country": [
        "JP"
      ],
      "vote_count": 325,
      "first_air_date": "2015-10-04",
      "backdrop_path": "/s0w8JbuNNxL1YgaHeDWih12C3jG.jpg",
      "original_language": "ja",
      "id": 63926,
      "vote_average": 8.2,
      "overview": "Saitama est un homme devenu super-héros pour passer le temps. Il a obtenu un pouvoir inégalable à l’issue de 3 ans d’entraînement intensif, lui permettant ainsi de venir à bout de tous les ennemis qui se dressent sur sa route en un seul coup de poing.\n\nAprès divers événements, il rejoint l’Association des Héros avec son apprenti Genos afin d’obtenir leur permis de héros et exercer officiellement leur activité…\n\nAlors que l’Association met en place un plan pour empêcher la dernière prédiction de Mme Ridma de se réaliser, le chasseur de héros Garoh fait son apparition.",
      "poster_path": "/7DaorLyWn7ch5C6AWcnUdOg3K0x.jpg"
    },
    {
      "original_name": "The Flash",
      "genre_ids": [
        18,
        10765
      ],
      "name": "Flash",
      "popularity": 368.717,
      "origin_country": [
        "US"
      ],
      "vote_count": 2636,
      "first_air_date": "2014-10-07",
      "backdrop_path": "/jC1KqsFx8ZyqJyQa2Ohi7xgL7XC.jpg",
      "original_language": "en",
      "id": 60735,
      "vote_average": 6.7,
      "overview": "Jeune expert de la police scientifique de Central City, Barry Allen se retrouve doté d'une vitesse extraordinaire après avoir été frappé par la foudre. Sous le costume de Flash, il utilise ses nouveaux pouvoirs pour combattre le crime.",
      "poster_path": "/lUFK7ElGCk9kVEryDJHICeNdmd1.jpg"
    },
    {
      "original_name": "Arrow",
      "genre_ids": [
        80,
        18,
        9648,
        10759
      ],
      "name": "Arrow",
      "popularity": 256.917,
      "origin_country": [
        "US"
      ],
      "vote_count": 2418,
      "first_air_date": "2012-10-10",
      "backdrop_path": "/dKxkwAJfGuznW8Hu0mhaDJtna0n.jpg",
      "original_language": "en",
      "id": 1412,
      "vote_average": 5.8,
      "overview": "Adaptée du comic book \"Green Arrow\", la série raconte le destin d'un multimillionnaire insouciant devenu superhéros, déterminé à débarrasser la ville de ses criminels.",
      "poster_path": "/mo0FP1GxOFZT4UDde7RFDz5APXF.jpg"
    },
    {
      "original_name": "Riverdale",
      "genre_ids": [
        18,
        9648
      ],
      "name": "Riverdale",
      "popularity": 209.81,
      "origin_country": [
        "US"
      ],
      "vote_count": 513,
      "first_air_date": "2017-01-26",
      "backdrop_path": "/2IUpoKSP64r6rp2vBo0Fdk8a1UU.jpg",
      "original_language": "en",
      "id": 69050,
      "vote_average": 6.9,
      "overview": "Sous ses airs de petite ville tranquille, Riverdale cache en réalité de sombres secrets. Alors qu'une nouvelle année scolaire débute, le jeune Archie Andrews et ses amis Betty, Jughead, et Kevin voient leur quotidien bouleversé par la mort mystérieuse de Jason Blossom, un de leurs camarades de lycée. Alors que les secrets des uns et des autres menacent de remonter à la surface, et que la belle Veronica, fraîchement débarquée de New York, fait une arrivée remarquée en ville, plus rien ne sera jamais comme avant à Riverdale...",
      "poster_path": "/pHcNHYPg0c2vg7qay6wjJoApUgS.jpg"
    },
    {
      "original_name": "Grey's Anatomy",
      "genre_ids": [
        18
      ],
      "name": "Grey's Anatomy",
      "popularity": 209.683,
      "origin_country": [
        "US"
      ],
      "vote_count": 929,
      "first_air_date": "2005-03-27",
      "backdrop_path": "/y6JABtgWMVYPx84Rvy7tROU5aNH.jpg",
      "original_language": "en",
      "id": 1416,
      "vote_average": 6.2,
      "overview": "Meredith Grey, fille d'un chirurgien très réputé, commence son internat de première année en médecine chirurgicale dans un hôpital de Seattle. La jeune femme s'efforce de maintenir de bonnes relations avec ses camarades internes, mais dans ce métier difficile la compétition fait rage.",
      "poster_path": "/m4J3oK2Zh61Pg8NxX3zanW4joau.jpg"
    },
    {
      "original_name": "The 100",
      "genre_ids": [
        18,
        10765
      ],
      "name": "Les 100",
      "popularity": 185.672,
      "origin_country": [
        "US"
      ],
      "vote_count": 1477,
      "first_air_date": "2014-03-19",
      "backdrop_path": "/qYTIuJJ7fIehicAt3bl0vW70Sq6.jpg",
      "original_language": "en",
      "id": 48866,
      "vote_average": 6.5,
      "overview": "Après une apocalypse causée par l'Homme lors d'une troisième Guerre Mondiale, les 318 survivants recensés se réfugient dans des stations spatiales et parviennent à y vivre et à se reproduire, atteignant le nombre de 4000. Mais 97 ans plus tard, le vaisseau mère, The Ark, est en piteux état. Une centaine de jeunes délinquants emprisonnés au fil des années pour des crimes ou des trahisons sont choisis comme cobayes par les autorités pour redescendre sur Terre et tester les chances de survie. Dès leur arrivée, ils découvrent un nouveau monde dangereux mais fascinant...",
      "poster_path": "/1ePsCN6vpduAX1LxEdqfbwfS4nf.jpg"
    },
    {
      "original_name": "ナルト 疾風伝",
      "genre_ids": [
        16,
        35,
        18
      ],
      "name": "Naruto Shippuden",
      "popularity": 174.5,
      "origin_country": [
        "JP"
      ],
      "vote_count": 216,
      "first_air_date": "2007-02-15",
      "backdrop_path": "/c14vjmndzL9tBdooGsMznMFrFLo.jpg",
      "original_language": "ja",
      "id": 31910,
      "vote_average": 7.5,
      "overview": "Cela fait désormais trois ans que Naruto est parti de Konoha en entraînement spécial avec le Sannin légendaire Jiraya, avec toujours en tête son fol espoir de retrouver son ami Sasuke et de le ramener parmi les siens au village. Cette suite des aventures du ninja à la tignasse dorée reprend avec son retour dans le village de Konoha, marquées par diverses retrouvailles avec ses amis de toujours et le danger imminent que représente l'organisation Akatsuki à son encontre... ",
      "poster_path": "/ic9Gb4Zz09ns3JPYHdax8u5kt0n.jpg"
    },
    {
      "original_name": "フェアリーテイル",
      "genre_ids": [
        16,
        35,
        10759,
        10765
      ],
      "name": "Fairy Tail",
      "popularity": 174.189,
      "origin_country": [
        "JP"
      ],
      "vote_count": 148,
      "first_air_date": "2009-10-12",
      "backdrop_path": "/m2lugAG39sO0yCcuxEAu4fY5u1o.jpg",
      "original_language": "ja",
      "id": 46261,
      "vote_average": 6.5,
      "overview": "L’histoire se focalise principalement sur les missions effectuées par l’une des équipes de Fairy Tail, composée de Natsu Dragnir (chasseur de dragon de feu), Lucy Heartfilia (constellationniste) et Happy (un chat bleu Exceed pouvant se faire pousser des ailes, voler et parler), qui seront très vite rejoints par Erza Scarlett (mage chevalier) et Grey Fullbuster (mage de glace), deux autres membres de la fameuse guilde. Ils sont rejoints au cours de l'aventure par Carla (une chatte blanche Exceed comme Happy) et Wendy (chasseuse de dragon céleste).",
      "poster_path": "/vLDHozacqA5MV3YemNyb4Cq1nE8.jpg"
    },
    {
      "original_name": "Supernatural",
      "genre_ids": [
        18,
        9648,
        10765
      ],
      "name": "Supernatural",
      "popularity": 164.599,
      "origin_country": [
        "US"
      ],
      "vote_count": 1765,
      "first_air_date": "2005-09-13",
      "backdrop_path": "/o9OKe3M06QMLOzTl3l6GStYtnE9.jpg",
      "original_language": "en",
      "id": 1622,
      "vote_average": 7.2,
      "overview": "Deux frères, Sam et Dean Winchester, chasseurs de créatures surnaturelles, sillonnent les États-Unis à bord d'une Chevrolet Impala noire de 1967 et enquêtent sur des phénomènes paranormaux (souvent issus du folklore, des superstitions, mythes et légendes urbaines américaines, mais aussi des monstres surnaturels tels que les fantômes, loups-garous, démons, vampires…).",
      "poster_path": "/3iFm6Kz7iYoFaEcj4fLyZHAmTQA.jpg"
    },
    {
      "original_name": "ドラゴンボール",
      "genre_ids": [
        16,
        35,
        10759,
        10765
      ],
      "name": "Dragon Ball",
      "popularity": 163.398,
      "origin_country": [
        "JP"
      ],
      "vote_count": 284,
      "first_air_date": "1986-02-26",
      "backdrop_path": "/iflq7ZJfso6WC7gk9l1tD3unWK.jpg",
      "original_language": "ja",
      "id": 12609,
      "vote_average": 7.2,
      "overview": "Son Goku est un jeune garçon naïf et pur doté d'une queue de singe et d'une force extraordinaire. Il vit seul après le décès de son grand-père adoptif sur une montagne et en pleine nature ayant les caractéristiques d'une jungle. Un jour, il rencontre Bulma, une jeune fille de la ville très intelligente. Elle est à la recherche des sept boules de cristal légendaires appelées Dragon Balls. Dispersées sur Terre, ces Dragon Balls, une fois réunies, font apparaître Shenron, le Dragon sacré, qui exauce le souhait de celui qui l'a appelé. Amadoué, Son Goku accepte d'aider Bulma à retrouver les boules. Au cours de leur parcours initiatique, ils font de nombreuses rencontres. Son Goku, qui n'était jamais sorti de sa forêt, est amené à suivre un apprentissage auprès de maîtres comme Kamé Sennin ou Maître Karin et à participer à plusieurs championnats du monde d'arts martiaux.",
      "poster_path": "/jsAJ4o7IuwCUMhaAF3UGlzBL8vN.jpg"
    },
    {
      "original_name": "賢者の孫",
      "genre_ids": [
        16,
        35
      ],
      "name": "Kenja no Mago",
      "popularity": 160.56,
      "origin_country": [
        
      ],
      "vote_count": 4,
      "first_air_date": "2019-04-10",
      "backdrop_path": "/1YOGJT4l1iIFbOVrNTFEo5vl3p.jpg",
      "original_language": "ja",
      "id": 85844,
      "vote_average": 4.8,
      "overview": "L'histoire se centre sur un jeune homme qui se réincarne dans le corps d'un nouveau-né suite à un accident mortel.  Lors d'une expédition, le patriote Merlin Wolford retrouve ce nouveau-né et décide de l'élever comme son petit-fils. Il va lui apprendre la magie et tout ce qu'il connait de ce monde. Appelé Shin par Merlin, il a maintenant 15 ans. Cependant son grand-père d'adoption vient de remarquer qu'il a oublié de lui apprendre une chose : le bon sens !\n\nPour lui apprendre à se sociabiliser, Merlin décide d'envoyer Shin dans le royaume d'Earlshide pour lui faire intégrer l'Académie de magie avancée d'Earlshide.",
      "poster_path": "/fZ06aDZr2zHehQbeRpZXhXAeqDF.jpg"
    },
    {
      "original_name": "Black Summer",
      "genre_ids": [
        18,
        10759
      ],
      "name": "Black Summer",
      "popularity": 156.642,
      "origin_country": [
        "US"
      ],
      "vote_count": 27,
      "first_air_date": "2019-04-11",
      "backdrop_path": "/vZcYeHIm3xuKW6iFTTBDg57ZNk0.jpg",
      "original_language": "en",
      "id": 88052,
      "vote_average": 6.2,
      "overview": "Au coeur d'une apocalypse zombie, une mère est arrachée à sa fille. Elle commmence une longue aventure pour la retrouver à travers un monde hostile.",
      "poster_path": "/tnRiTrHCL3k5F0QOtQhkQd3AAR5.jpg"
    },
    {
      "original_name": "The Blacklist",
      "genre_ids": [
        80,
        18,
        9648
      ],
      "name": "Blacklist",
      "popularity": 155.668,
      "origin_country": [
        "US"
      ],
      "vote_count": 966,
      "first_air_date": "2013-09-23",
      "backdrop_path": "/fHwiAqIKragaCbNJo9Qs4lrccIN.jpg",
      "original_language": "en",
      "id": 46952,
      "vote_average": 7,
      "overview": "Raymond « Red » Reddington, l’un des fugitifs les plus recherchés par le FBI, se rend en personne au quartier général du FBI à Washington. Il affirme avoir les mêmes intérêts que le FBI : faire tomber des criminels dangereux et des terroristes. Reddington coopérera, mais insiste pour ne parler qu’à Elizabeth Keen, une profileuse inexpérimentée du FBI. Keen s’interroge sur l’intérêt soudain que Reddington lui porte, bien qu’il soutienne que Keen est très spéciale. Après que le FBI a fait tomber un terroriste sur lequel il a fourni des informations, Reddington révèle que ce terroriste n’est que le premier de beaucoup d’autres à venir : durant les deux dernières décennies, il a fait une liste des criminels et terroristes qu'il croit introuvable par le FBI parce que ce dernier ignorait leur existence et que ce sont les plus importants. Reddington l’appelle « La Liste noire » (« The Blacklist »).",
      "poster_path": "/y3Huzln26zGNW4RCr0h4PTwEpfi.jpg"
    },
    {
      "original_name": "Family Guy",
      "genre_ids": [
        16,
        35
      ],
      "name": "Les Griffin",
      "popularity": 155.211,
      "origin_country": [
        "US"
      ],
      "vote_count": 1501,
      "first_air_date": "1999-01-31",
      "backdrop_path": "/3OFrs1ets87VmRvG78Zg5eJTZeq.jpg",
      "original_language": "en",
      "id": 1434,
      "vote_average": 6.5,
      "overview": "La famille Griffin habite à Quahog, charmante petite bourgade américaine. Peter, le père, a érigé la fainéantise en philosophie de vie. Lois, la mère, est à la fois la femme au foyer bonne à tout faire et le cerveau de la famille. Chris, le fils, a hérité de son père ses formes généreuses et ses préoccupations favorites sont manger, surfer sur le web et manger. Megan, la fille, est l'archétype de l'adolescente en crise : elle ne s'aime pas et, en même temps, attend désespérément son prince. Stewie, le petit dernier, a pour ambition de conquérir le monde. Même Brian, le chien, est complètement fou, ou plutôt très intelligent : il parle, philosophe, débat... Bienvenue chez les Griffin !",
      "poster_path": "/n3UBzIx28m3FpC2EDwVJIjvPxnl.jpg"
    },
    {
      "original_name": "The Simpsons",
      "genre_ids": [
        16,
        35
      ],
      "name": "Les Simpson",
      "popularity": 137.513,
      "origin_country": [
        "US"
      ],
      "vote_count": 1978,
      "first_air_date": "1989-12-17",
      "backdrop_path": "/1pP0gg0iNGX06wSs19EQOvzfZIF.jpg",
      "original_language": "en",
      "id": 456,
      "vote_average": 7.1,
      "overview": "Les Simpson, famille américaine moyenne, vivent à Springfield. Homer, le père, a deux passions : regarder la télé et boire des bières. Mais son quotidien est rarement reposant, entre son fils Bart qui fait toutes les bêtises possibles, sa fille Lisa qui est une surdouée, ou encore sa femme Marge qui ne supporte pas de le voir se soûler à longueur de journée.",
      "poster_path": "/tptIMKRPHPEnnlzSgzvJIF1Rguk.jpg"
    },
    {
      "original_name": "Lucifer",
      "genre_ids": [
        80,
        10765
      ],
      "name": "Lucifer",
      "popularity": 136.165,
      "origin_country": [
        "US"
      ],
      "vote_count": 915,
      "first_air_date": "2016-01-25",
      "backdrop_path": "/6kZCuvbirx6ibJfaWqwV2p90yPI.jpg",
      "original_language": "en",
      "id": 63174,
      "vote_average": 7.4,
      "overview": "Lassé d’être le Seigneur des Enfers, le diable s’installe à Los Angeles où il ouvre un nightclub et se lie avec une policière de la brigade criminelle.",
      "poster_path": "/w9w5B6vOkojv6UX7JTWORokBxa7.jpg"
    },
    {
      "original_name": "Supergirl",
      "genre_ids": [
        28,
        12,
        18,
        878
      ],
      "name": "Supergirl",
      "popularity": 131.757,
      "origin_country": [
        "US"
      ],
      "vote_count": 926,
      "first_air_date": "2015-10-26",
      "backdrop_path": "/2qou2R47XZ1N6SlqGZcoCHDyEhN.jpg",
      "original_language": "en",
      "id": 62688,
      "vote_average": 5.7,
      "overview": "Les aventures de Kara Zor-El, la cousine de Superman, alias Supergirl. A 24 ans, après seulement 4 années passées sur Terre, la jeune femme se sent impuissante face à ses pouvoirs extraordinaires qu'on lui a appris à ne pas utiliser. Mais un désastre inattendu va la forcer à le faire et c'est ainsi qu'elle commence à aider les habitants de sa ville qui ne tardent pas à la surnommer \"Supergirl\"...",
      "poster_path": "/ufoGrTRbItHvqk42yNHcyoE0afM.jpg"
    },
    {
      "original_name": "NCIS: Los Angeles",
      "id": 17610,
      "name": "NCIS : Los Angeles",
      "popularity": 131.228,
      "vote_count": 321,
      "vote_average": 6.6,
      "first_air_date": "2009-09-22",
      "poster_path": "/n8a3vV5kfYMAloGDNpt8PwvRDMz.jpg",
      "genre_ids": [
        10759,
        18,
        80,
        9648
      ],
      "original_language": "en",
      "backdrop_path": "/dQ8xZxtZtZTq74RjTycO1RKoqi0.jpg",
      "overview": "Les enquêtes de l'équipe du NCIS de Los Angeles spécialisée dans les missions d'infiltration... Le bureau des cas spéciaux basé à Los Angeles est chargé d'appréhender les criminels qui menacent la sécurité de la Nation. Rien n'arrête l'équipe de l'OSP muni de fausses identités, de couverture et de technologies avancées.",
      "origin_country": [
        "US"
      ]
    },
    {
      "original_name": "NCIS",
      "genre_ids": [
        80,
        18,
        10759
      ],
      "name": "NCIS : Enquêtes Spéciales",
      "popularity": 125.567,
      "origin_country": [
        "US"
      ],
      "vote_count": 745,
      "first_air_date": "2003-09-23",
      "backdrop_path": "/nymeWHYQ1JaWP2wyNW5a5WHiDCd.jpg",
      "original_language": "en",
      "id": 4614,
      "vote_average": 6.6,
      "overview": "À la tête de cette équipe du NCIS, qui opère en dehors de la chaîne de commandement militaire, l'agent Special Leroy Jethro Gibbs, un enquêteur qualifié dont les qualités sont d'être intelligent, solide et prêt à contourner les règles pour faire le travail. Travaillant sous les ordres de Gibbs, on retrouve l'agent Anthony DiNozzo, l'agent Abby Sciuto et le Dr Donald \"Ducky\" Mallard. De meurtre en espionnage anti-terrorisme et sous-marins volés, ces agents spéciaux parcourent la planète pour enquêter sur tous les crimes ayant un lien avec Marine ou le Corps de la Marine.",
      "poster_path": "/q9TVqJSHfJPsEJGHtxHuBvOdKu9.jpg"
    }
  ]
}